<?xml version="1.0" encoding="UTF-8" standalone="no"?>
<svg
   width="93"
   height="21"
   viewBox="0 0 93 21"
   version="1.1"
   id="svg30"
   sodipodi:docname="title.svg"
   style="fill:none"
   inkscape:version="1.1.1 (1:1.1+202109281943+c3084ef5ed)"
   xmlns:inkscape="http://www.inkscape.org/namespaces/inkscape"
   xmlns:sodipodi="http://sodipodi.sourceforge.net/DTD/sodipodi-0.dtd"
   xmlns="http://www.w3.org/2000/svg"
   xmlns:svg="http://www.w3.org/2000/svg"
   xmlns:rdf="http://www.w3.org/1999/02/22-rdf-syntax-ns#"
   xmlns:cc="http://creativecommons.org/ns#"
   xmlns:dc="http://purl.org/dc/elements/1.1/">
  <metadata
     id="metadata36">
    <rdf:RDF>
      <cc:Work
         rdf:about="">
        <dc:format>image/svg+xml</dc:format>
        <dc:type
           rdf:resource="http://purl.org/dc/dcmitype/StillImage" />
      </cc:Work>
    </rdf:RDF>
  </metadata>
  <defs
     id="defs34" />
  <sodipodi:namedview
     pagecolor="#ffffff"
     bordercolor="#666666"
     borderopacity="1"
     objecttolerance="10"
     gridtolerance="10"
     guidetolerance="10"
     inkscape:pageopacity="0"
     inkscape:pageshadow="2"
     inkscape:window-width="1920"
     inkscape:window-height="1026"
     id="namedview32"
     showgrid="false"
     inkscape:pagecheckerboard="true"
     inkscape:zoom="23.597122"
     inkscape:cx="75.242225"
     inkscape:cy="11.653963"
     inkscape:window-x="0"
     inkscape:window-y="24"
     inkscape:window-maximized="1"
     inkscape:current-layer="svg30"
     lock-margins="false"
     fit-margin-right="0" />
  <path
     d="M 2.40545,15.4566 H 0.162598 V 1.62097 H 7.96998 V 3.53259 H 2.40545 V 7.85741 H 7.61983 V 9.7785 H 2.40545 Z"
     id="path2"
     inkscape:connector-curvature="0"
     style="fill:#ffffff" />
  <path
     d="m 14.8121,15.6459 c -1.6277,0 -2.9021,-0.4732 -3.8233,-1.4196 -0.9148,-0.9526 -1.37217,-2.2617 -1.37217,-3.9273 0,-1.70974 0.42587,-3.05356 1.27757,-4.03146 0.8517,-0.97789 2.022,-1.46684 3.511,-1.46684 1.3816,0 2.4731,0.41955 3.2743,1.25865 0.8013,0.83909 1.2019,1.99364 1.2019,3.46364 v 1.20191 h -6.9746 c 0.0315,1.0157 0.306,1.798 0.8233,2.3469 0.5174,0.5426 1.246,0.8139 2.1861,0.8139 0.6183,0 1.1924,-0.0568 1.7223,-0.1704 0.5363,-0.1199 1.1104,-0.3154 1.7224,-0.5867 v 1.8075 c -0.5426,0.2587 -1.0915,0.4416 -1.6466,0.5489 -0.5552,0.1072 -1.1893,0.1609 -1.9022,0.1609 z M 14.4052,6.4852 c -0.7066,0 -1.2745,0.22397 -1.7035,0.67191 -0.4227,0.44794 -0.675,1.10092 -0.7571,1.95895 h 4.7507 C 16.6827,8.25172 16.4745,7.59874 16.0707,7.15711 15.667,6.70917 15.1118,6.4852 14.4052,6.4852 Z"
     id="path4"
     inkscape:connector-curvature="0"
     style="fill:#ffffff" />
  <path
     d="m 26.7172,4.8007 c 0.4479,0 0.817,0.03155 1.1072,0.09464 l -0.2177,2.0725 c -0.3154,-0.0757 -0.6435,-0.11356 -0.9842,-0.11356 -0.8895,0 -1.6119,0.29022 -2.1671,0.87064 -0.5489,0.58043 -0.8233,1.33436 -0.8233,2.26178 v 5.4699 h -2.224 V 4.98997 h 1.7413 l 0.2934,1.84538 h 0.1136 c 0.347,-0.62459 0.798,-1.11984 1.3532,-1.48576 0.5615,-0.36593 1.164,-0.54889 1.8076,-0.54889 z"
     id="path6"
     inkscape:connector-curvature="0"
     style="fill:#ffffff" />
  <path
     d="m 36.7674,15.4566 h -7.9399 v -1.3722 l 5.2901,-7.391 H 29.1493 V 4.98997 h 7.4667 v 1.55202 l -5.1765,7.21121 h 5.3279 z"
     id="path8"
     inkscape:connector-curvature="0"
     style="fill:#ffffff" />
  <path
     d="M 52.6776,15.4566 50.4253,8.57664 C 50.2802,8.10977 50.0941,7.42525 49.8669,6.52306 h -0.0567 l -0.1988,0.7003 -0.4258,1.3722 -2.2902,6.86104 H 45.968 L 43.0248,5.16978 h 1.0032 l 1.6466,5.96202 c 0.3848,1.4763 0.6372,2.5614 0.7571,3.2554 h 0.0568 c 0.3722,-1.4763 0.6435,-2.4573 0.8138,-2.9431 l 2.1198,-6.27432 h 0.8518 l 2.0157,6.25532 c 0.4542,1.4827 0.7318,2.4637 0.8328,2.9432 h 0.0568 c 0.0504,-0.4101 0.3028,-1.5079 0.757,-3.2933 L 55.507,5.16978 h 0.947 L 53.6618,15.4566 Z"
     id="path18"
     inkscape:connector-curvature="0"
     style="fill:#ffffff" />
  <path
     d="m 64.725,15.4566 -0.237,-1.6277 h -0.076 c -0.517,0.6624 -1.05,1.1324 -1.599,1.41 -0.543,0.2713 -1.186,0.407 -1.931,0.407 -1.009,0 -1.794,-0.2587 -2.356,-0.776 -0.561,-0.5174 -0.842,-1.2334 -0.842,-2.1483 0,-1.0031 0.416,-1.7822 1.249,-2.3374 0.839,-0.55523 2.05,-0.8486 3.634,-0.88014 L 64.526,9.44728 V 8.76591 c 0,-0.9779 -0.199,-1.71605 -0.596,-2.21446 -0.398,-0.49841 -1.038,-0.74762 -1.921,-0.74762 -0.953,0 -1.94,0.26498 -2.962,0.79494 L 58.696,5.78491 c 1.13,-0.52996 2.246,-0.79494 3.35,-0.79494 1.13,0 1.972,0.29337 2.527,0.88011 0.562,0.58673 0.842,1.50154 0.842,2.74441 v 6.84211 z m -3.786,-0.6624 c 1.098,0 1.962,-0.3123 2.593,-0.9369 0.637,-0.6309 0.956,-1.5047 0.956,-2.6214 V 10.2233 L 62.69,10.299 c -1.445,0.0694 -2.476,0.2965 -3.095,0.6814 -0.612,0.3785 -0.918,0.9716 -0.918,1.7791 0,0.6435 0.196,1.1451 0.587,1.5047 0.398,0.3533 0.956,0.53 1.675,0.53 z"
     id="path20"
     inkscape:connector-curvature="0"
     style="fill:#ffffff" />
  <path
     d="M 69.693,15.4566 H 68.756 V 0.7314 h 0.937 z"
     id="path22"
     inkscape:connector-curvature="0"
     style="fill:#ffffff" />
  <path
     d="M 74.084,15.4566 H 73.147 V 0.7314 h 0.937 z"
     id="path24"
     inkscape:connector-curvature="0"
     style="fill:#ffffff" />
  <path
     d="m 81.693,15.6459 c -1.496,0 -2.663,-0.4606 -3.502,-1.3817 -0.833,-0.9211 -1.249,-2.2113 -1.249,-3.8706 0,-1.64031 0.404,-2.95258 1.211,-3.93679 0.808,-0.99051 1.896,-1.48576 3.265,-1.48576 1.212,0 2.167,0.4227 2.868,1.2681 0.7,0.84541 1.05,1.99365 1.05,3.44472 v 0.75703 h -7.41 c 0.013,1.4133 0.341,2.4921 0.984,3.2366 0.65,0.7444 1.578,1.1167 2.783,1.1167 0.586,0 1.101,-0.0411 1.542,-0.1231 0.448,-0.082 1.013,-0.2586 1.694,-0.5299 v 0.8517 c -0.58,0.2523 -1.117,0.4227 -1.609,0.511 -0.492,0.0947 -1.034,0.142 -1.627,0.142 z M 81.418,5.80383 c -0.99,0 -1.785,0.32807 -2.385,0.98421 -0.599,0.64982 -0.949,1.58986 -1.05,2.82012 h 6.359 c 0,-1.1924 -0.258,-2.12298 -0.776,-2.79173 -0.517,-0.67507 -1.233,-1.0126 -2.148,-1.0126 z"
     id="path26"
     inkscape:connector-curvature="0"
     style="fill:#ffffff" />
  <path
     d="m 90.891,14.8131 c 0.593,0 1.111,-0.0505 1.552,-0.1514 v 0.757 c -0.454,0.1515 -0.978,0.2272 -1.571,0.2272 -0.908,0 -1.58,-0.2429 -2.015,-0.7287 C 88.428,14.4314 88.213,13.668 88.213,12.627 V 5.98364 H 86.689 V 5.43476 L 88.213,5.0089 88.686,2.68088 h 0.483 v 2.4889 h 3.019 v 0.81386 h -3.019 v 6.51086 c 0,0.7886 0.139,1.3722 0.416,1.7508 0.278,0.3785 0.713,0.5678 1.306,0.5678 z"
     id="path28"
     inkscape:connector-curvature="0"
     style="fill:#ffffff" />
</svg>
