<?xml version="1.0" encoding="UTF-8" standalone="no"?>
<svg
   xmlns:dc="http://purl.org/dc/elements/1.1/"
   xmlns:cc="http://creativecommons.org/ns#"
   xmlns:rdf="http://www.w3.org/1999/02/22-rdf-syntax-ns#"
   xmlns:svg="http://www.w3.org/2000/svg"
   xmlns="http://www.w3.org/2000/svg"
   xmlns:xlink="http://www.w3.org/1999/xlink"
   id="svg1122"
   version="1.1"
   viewBox="0 0 96.814153 111.03235"
   height="111.03235mm"
   width="96.814156mm">
  <defs
     id="defs1116">
    <linearGradient
       id="SVGID_1_"
       gradientUnits="userSpaceOnUse"
       x1="10.9668"
       y1="44.245602"
       x2="195"
       y2="44.245602">
      <stop
         offset="0"
         style="stop-color:#EF4343"
         id="stop26" />
      <stop
         offset="1"
         style="stop-color:#FFC741"
         id="stop28" />
    </linearGradient>
    <linearGradient
       gradientTransform="matrix(5.6764852,0,0,5.6764852,-46.880882,-400.19432)"
       gradientUnits="userSpaceOnUse"
       y2="90.069832"
       x2="35.54229"
       y1="90.069832"
       x1="18.486996"
       id="linearGradient1184-0"
       xlink:href="#SVGID_1_" />
  </defs>
  <metadata
     id="metadata1119">
    <rdf:RDF>
      <cc:Work
         rdf:about="">
        <dc:format>image/svg+xml</dc:format>
        <dc:type
           rdf:resource="http://purl.org/dc/dcmitype/StillImage" />
        <dc:title></dc:title>
      </cc:Work>
    </rdf:RDF>
  </metadata>
  <g
     transform="translate(-58.060276,-55.56956)"
     id="layer1">
    <path
       class="st0"
       d="M 154.87443,166.60191 77.361966,133.96109 101.89994,109.0791 Z M 126.39971,84.235435 101.86171,109.0791 58.060276,55.56956 Z"
       id="path1370-0-4-3"
       style="fill:url(#linearGradient1184-0);fill-opacity:1;stroke-width:0.83787102" />
  </g>
</svg>
